<?xml version="1.0" encoding="UTF-8" standalone="no"?>
<!-- Created with Inkscape (http://www.inkscape.org/) -->

<svg
   xmlns:dc="http://purl.org/dc/elements/1.1/"
   xmlns:cc="http://creativecommons.org/ns#"
   xmlns:rdf="http://www.w3.org/1999/02/22-rdf-syntax-ns#"
   xmlns:svg="http://www.w3.org/2000/svg"
   xmlns="http://www.w3.org/2000/svg"
   xmlns:sodipodi="http://sodipodi.sourceforge.net/DTD/sodipodi-0.dtd"
   xmlns:inkscape="http://www.inkscape.org/namespaces/inkscape"
   width="600"
   height="800"
   viewBox="0 0 600.00001 800.00001"
   id="svg2"
   version="1.1"
   inkscape:version="0.91 r"
   sodipodi:docname="topic.svg">
  <defs
     id="defs4" />
  <sodipodi:namedview
     id="base"
     pagecolor="#ffffff"
     bordercolor="#666666"
     borderopacity="1.0"
     inkscape:pageopacity="0.0"
     inkscape:pageshadow="2"
     inkscape:zoom="1.979899"
     inkscape:cx="153.5112"
     inkscape:cy="695.97887"
     inkscape:document-units="px"
     inkscape:current-layer="layer47"
     showgrid="false"
     units="px"
     inkscape:window-width="1551"
     inkscape:window-height="876"
     inkscape:window-x="49"
     inkscape:window-y="24"
     inkscape:window-maximized="1"
     showguides="false" />
  <metadata
     id="metadata7">
    <rdf:RDF>
      <cc:Work
         rdf:about="">
        <dc:format>image/svg+xml</dc:format>
        <dc:type
           rdf:resource="http://purl.org/dc/dcmitype/StillImage" />
        <dc:title />
      </cc:Work>
    </rdf:RDF>
  </metadata>
  <g
     inkscape:label="background"
     inkscape:groupmode="layer"
     id="layer1"
     transform="translate(0,-252.36216)"
     sodipodi:insensitive="true">
    <rect
       style="opacity:0.98999999;fill:#fafafa;fill-opacity:1;fill-rule:nonzero;stroke:none;stroke-width:1;stroke-linecap:square;stroke-linejoin:miter;stroke-miterlimit:4;stroke-dasharray:none;stroke-opacity:1"
       id="rect4136"
       width="600"
       height="800"
       x="0"
       y="252.36218" />
  </g>
  <g
     inkscape:groupmode="layer"
     id="layer2"
     inkscape:label="titlebar"
     style="display:inline">
    <g
       inkscape:groupmode="layer"
       id="layer9"
       inkscape:label="title_background"
       sodipodi:insensitive="true">
      <rect
         style="display:inline;opacity:0.98999999;fill:#487f90;fill-opacity:1;fill-rule:nonzero;stroke:none;stroke-width:1;stroke-linecap:square;stroke-linejoin:miter;stroke-miterlimit:4;stroke-dasharray:none;stroke-opacity:1"
         id="rect4139"
         width="600"
         height="30"
         x="0"
         y="0.7142849" />
    </g>
    <g
       inkscape:groupmode="layer"
       id="layer3"
       inkscape:label="home"
       style="display:inline">
      <path
         id="path4702"
         d="m 32.126447,16.76312 -1.672,0 0,6 c 0,0.445 -0.194,1 -1,1 l -4,0 0,-6 -4,0 0,6 -4,0 c -0.806,0 -1,-0.555 -1,-1 l 0,-6 -1.672,0 c -0.598,0 -0.47,-0.324 -0.06,-0.748 l 8.024,-8.0320002 c 0.195,-0.202 0.451,-0.302 0.708,-0.312 0.257,0.01 0.513,0.109 0.708,0.312 l 8.023,8.0310002 c 0.411,0.425 0.539,0.749 -0.059,0.749 z"
         inkscape:connector-curvature="0"
         style="fill:#000000;fill-opacity:1;stroke:#000000;stroke-opacity:1" />
    </g>
    <g
       inkscape:groupmode="layer"
       id="layer8"
       inkscape:label="search"
       style="display:inline">
      <path
         id="path4981"
         d="m 589.36994,21.611946 -3.779,-3.779 c 0.57,-0.935 0.898,-2.035 0.898,-3.21 0,-3.417 -2.961,-6.3770004 -6.378,-6.3770004 -3.417,-0.001 -6.186,2.7690004 -6.186,6.1860004 0,3.416 2.961,6.377 6.377,6.377 1.137,0 2.2,-0.309 3.115,-0.844 l 3.799,3.801 c 0.372,0.371 0.975,0.371 1.346,0 l 0.943,-0.943 c 0.371,-0.371 0.236,-0.84 -0.135,-1.211 z m -13.541,-7.18 c 0,-2.366 1.917,-4.283 4.282,-4.283 2.366,0 4.474,2.107 4.474,4.474 0,2.365 -1.918,4.283 -4.283,4.283 -2.366,-0.001 -4.473,-2.109 -4.473,-4.474 z"
         inkscape:connector-curvature="0" />
      <rect
         style="opacity:0.98999999;fill:#ffffff;fill-opacity:1;fill-rule:nonzero;stroke:none;stroke-width:0.5;stroke-linecap:round;stroke-linejoin:miter;stroke-miterlimit:4;stroke-dasharray:none;stroke-opacity:1"
         id="rect4990"
         width="32.142857"
         height="17.857143"
         x="536.30603"
         y="7.3520656"
         ry="8.9285717" />
    </g>
    <g
       inkscape:groupmode="layer"
       id="layer4"
       inkscape:label="login"
       style="display:none">
      <text
         xml:space="preserve"
         style="font-style:normal;font-variant:normal;font-weight:normal;font-stretch:normal;font-size:12.5px;line-height:125%;font-family:sans-serif;-inkscape-font-specification:'sans-serif, Normal';text-align:start;letter-spacing:0px;word-spacing:0px;writing-mode:lr-tb;text-anchor:start;fill:#ffffff;fill-opacity:1;stroke:none;stroke-width:1px;stroke-linecap:butt;stroke-linejoin:miter;stroke-opacity:1"
         x="53.214287"
         y="20.357143"
         id="text4714"
         sodipodi:linespacing="125%"><tspan
           sodipodi:role="line"
           id="tspan4716"
           x="53.214287"
           y="20.357143">Login</tspan></text>
      <g
         inkscape:groupmode="layer"
         id="layer5"
         inkscape:label="register">
        <text
           xml:space="preserve"
           style="font-style:normal;font-weight:normal;font-size:7.5px;line-height:125%;font-family:sans-serif;letter-spacing:0px;word-spacing:0px;fill:#000000;fill-opacity:1;stroke:none;stroke-width:1px;stroke-linecap:butt;stroke-linejoin:miter;stroke-opacity:1"
           x="100"
           y="19.999998"
           id="text4719"
           sodipodi:linespacing="125%"><tspan
             sodipodi:role="line"
             id="tspan4721"
             x="100"
             y="19.999998"
             style="font-style:normal;font-variant:normal;font-weight:normal;font-stretch:normal;font-size:12.5px;line-height:125%;font-family:sans-serif;-inkscape-font-specification:'sans-serif, Normal';text-align:start;writing-mode:lr-tb;text-anchor:start;fill:#ffffff;fill-opacity:1">Register</tspan></text>
      </g>
    </g>
    <g
       inkscape:groupmode="layer"
       id="layer6"
       inkscape:label="username">
      <text
         xml:space="preserve"
         style="font-style:normal;font-variant:normal;font-weight:normal;font-stretch:normal;font-size:13.75px;line-height:125%;font-family:sans-serif;-inkscape-font-specification:'sans-serif, Normal';text-align:start;letter-spacing:0px;word-spacing:0px;writing-mode:lr-tb;text-anchor:start;fill:#ffffff;fill-opacity:1;stroke:none;stroke-width:1px;stroke-linecap:butt;stroke-linejoin:miter;stroke-opacity:1"
         x="186.87132"
         y="21.42857"
         id="text4724"
         sodipodi:linespacing="125%"><tspan
           sodipodi:role="line"
           id="tspan4726"
           x="186.87132"
           y="21.42857">darithorn</tspan></text>
      <g
         inkscape:groupmode="layer"
         id="layer11"
         inkscape:label="logout">
        <text
           xml:space="preserve"
           style="font-style:normal;font-variant:normal;font-weight:normal;font-stretch:normal;font-size:10px;line-height:125%;font-family:sans-serif;-inkscape-font-specification:'sans-serif, Normal';text-align:start;letter-spacing:0px;word-spacing:0px;writing-mode:lr-tb;text-anchor:start;fill:#ffffff;fill-opacity:1;stroke:none;stroke-width:1px;stroke-linecap:butt;stroke-linejoin:miter;stroke-opacity:1"
           x="276.7818"
           y="19.657158"
           id="text5090"
           sodipodi:linespacing="125%"><tspan
             sodipodi:role="line"
             id="tspan5092"
             x="276.7818"
             y="19.657158">logout</tspan></text>
      </g>
    </g>
    <g
       inkscape:groupmode="layer"
       id="layer48"
       inkscape:label="topic 3">
      <text
         xml:space="preserve"
         style="font-style:normal;font-weight:normal;font-size:7.5px;line-height:125%;font-family:sans-serif;letter-spacing:0px;word-spacing:0px;fill:#ffffff;fill-opacity:1;stroke:none;stroke-width:1px;stroke-linecap:butt;stroke-linejoin:miter;stroke-opacity:1"
         x="52.022854"
         y="19.152082"
         id="text6006"
         sodipodi:linespacing="125%"><tspan
           sodipodi:role="line"
           id="tspan6008"
           x="52.022854"
           y="19.152082">/t/ComputerScience</tspan></text>
    </g>
  </g>
  <g
     inkscape:groupmode="layer"
     id="layer12"
     inkscape:label="topic"
     style="display:inline">
    <g
       inkscape:groupmode="layer"
       id="layer13"
       inkscape:label="topic_background_dark"
       style="display:inline">
      <rect
         style="opacity:0.98999999;fill:#e1e1e1;fill-opacity:1;fill-rule:nonzero;stroke:none;stroke-width:0.5;stroke-linecap:round;stroke-linejoin:miter;stroke-miterlimit:4;stroke-dasharray:none;stroke-opacity:1"
         id="rect5116"
         width="406.18503"
         height="24.260199"
         x="-488.87817"
         y="50.606602"
         ry="6.3633308"
         transform="scale(-1,1)" />
    </g>
    <g
       inkscape:groupmode="layer"
       id="layer14"
       inkscape:label="title">
      <text
         xml:space="preserve"
         style="font-style:normal;font-variant:normal;font-weight:normal;font-stretch:normal;font-size:10.39722824px;line-height:125%;font-family:sans-serif;-inkscape-font-specification:'sans-serif, Normal';text-align:start;letter-spacing:0px;word-spacing:0px;writing-mode:lr-tb;text-anchor:start;fill:#1e1e1e;fill-opacity:1;stroke:none;stroke-width:1px;stroke-linecap:butt;stroke-linejoin:miter;stroke-opacity:1"
         x="169.35408"
         y="66.19516"
         id="text5119"
         sodipodi:linespacing="125%"><tspan
           sodipodi:role="line"
           id="tspan5121"
           x="169.35408"
           y="66.19516">Test Title</tspan></text>
    </g>
    <g
       inkscape:groupmode="layer"
       id="layer15"
       inkscape:label="topic_name">
      <text
         xml:space="preserve"
         style="font-style:normal;font-variant:normal;font-weight:normal;font-stretch:normal;font-size:5.19861412px;line-height:125%;font-family:sans-serif;-inkscape-font-specification:'sans-serif, Normal';text-align:start;letter-spacing:0px;word-spacing:0px;writing-mode:lr-tb;text-anchor:start;fill:#000000;fill-opacity:1;stroke:none;stroke-width:1px;stroke-linecap:butt;stroke-linejoin:miter;stroke-opacity:1"
         x="235.47916"
         y="64.851837"
         id="text5124"
         sodipodi:linespacing="125%"><tspan
           sodipodi:role="line"
           x="235.47916"
           y="64.851837"
           id="tspan5128">/t/ComputerScience</tspan></text>
    </g>
    <g
       inkscape:groupmode="layer"
       id="layer16"
       inkscape:label="author">
      <text
         xml:space="preserve"
         style="font-style:normal;font-variant:normal;font-weight:normal;font-stretch:normal;font-size:5.19861412px;line-height:125%;font-family:sans-serif;-inkscape-font-specification:'sans-serif, Normal';text-align:start;letter-spacing:0px;word-spacing:0px;writing-mode:lr-tb;text-anchor:start;fill:#000000;fill-opacity:1;stroke:none;stroke-width:1px;stroke-linecap:butt;stroke-linejoin:miter;stroke-opacity:1"
         x="314.58206"
         y="64.419815"
         id="text5133"
         sodipodi:linespacing="125%"><tspan
           sodipodi:role="line"
           id="tspan5137"
           x="314.58206"
           y="64.419815">darithorn</tspan></text>
    </g>
    <g
       inkscape:groupmode="layer"
       id="layer17"
       inkscape:label="by">
      <text
         xml:space="preserve"
         style="font-style:normal;font-variant:normal;font-weight:normal;font-stretch:normal;font-size:5.19861412px;line-height:125%;font-family:sans-serif;-inkscape-font-specification:'sans-serif, Normal';text-align:start;letter-spacing:0px;word-spacing:0px;writing-mode:lr-tb;text-anchor:start;fill:#969696;fill-opacity:1;stroke:none;stroke-width:1px;stroke-linecap:butt;stroke-linejoin:miter;stroke-opacity:1"
         x="305.47037"
         y="64.078384"
         id="text5140"
         sodipodi:linespacing="125%"><tspan
           sodipodi:role="line"
           id="tspan5142"
           x="305.47037"
           y="64.078384"
           style="font-style:normal;font-variant:normal;font-weight:normal;font-stretch:normal;font-size:5.19861412px;line-height:125%;font-family:sans-serif;-inkscape-font-specification:'sans-serif, Normal';text-align:start;writing-mode:lr-tb;text-anchor:start;fill:#969696;fill-opacity:1">by</tspan></text>
    </g>
    <g
       inkscape:groupmode="layer"
       id="layer18"
       inkscape:label="score"
       style="display:inline">
      <g
         inkscape:groupmode="layer"
         id="layer19"
         inkscape:label="number">
        <text
           xml:space="preserve"
           style="font-style:normal;font-variant:normal;font-weight:normal;font-stretch:normal;font-size:8.66435623px;line-height:125%;font-family:sans-serif;-inkscape-font-specification:'sans-serif, Normal';text-align:start;letter-spacing:0px;word-spacing:0px;writing-mode:lr-tb;text-anchor:start;fill:#000000;fill-opacity:1;stroke:none;stroke-width:1px;stroke-linecap:butt;stroke-linejoin:miter;stroke-opacity:1"
           x="93.262543"
           y="65.213608"
           id="text5151"
           sodipodi:linespacing="125%"><tspan
             sodipodi:role="line"
             id="tspan5153"
             x="93.262543"
             y="65.213608">42</tspan></text>
      </g>
      <text
         xml:space="preserve"
         style="font-style:normal;font-weight:normal;font-size:7.5px;line-height:125%;font-family:sans-serif;letter-spacing:0px;word-spacing:0px;fill:#969696;fill-opacity:1;stroke:none;stroke-width:1px;stroke-linecap:butt;stroke-linejoin:miter;stroke-opacity:1"
         x="85.427132"
         y="42.890671"
         id="text5145"
         sodipodi:linespacing="125%"><tspan
           sodipodi:role="line"
           id="tspan5147"
           x="85.427132"
           y="42.890671">Score:</tspan></text>
    </g>
    <g
       inkscape:groupmode="layer"
       id="layer21"
       inkscape:label="replies"
       style="display:inline">
      <text
         xml:space="preserve"
         style="font-style:normal;font-variant:normal;font-weight:normal;font-stretch:normal;font-size:7.5px;line-height:125%;font-family:sans-serif;-inkscape-font-specification:'sans-serif, Normal';text-align:start;letter-spacing:0px;word-spacing:0px;writing-mode:lr-tb;text-anchor:start;fill:#969696;fill-opacity:1;stroke:none;stroke-width:1px;stroke-linecap:butt;stroke-linejoin:miter;stroke-opacity:1"
         x="118.67747"
         y="43.09539"
         id="text5145-3"
         sodipodi:linespacing="125%"><tspan
           sodipodi:role="line"
           id="tspan5177"
           x="118.67747"
           y="43.09539">Replies:</tspan></text>
      <g
         inkscape:groupmode="layer"
         id="layer22"
         inkscape:label="number 1">
        <text
           xml:space="preserve"
           style="font-style:normal;font-variant:normal;font-weight:normal;font-stretch:normal;font-size:8.66435623px;line-height:125%;font-family:sans-serif;-inkscape-font-specification:'sans-serif, Normal';text-align:start;letter-spacing:0px;word-spacing:0px;writing-mode:lr-tb;text-anchor:start;fill:#000000;fill-opacity:1;stroke:none;stroke-width:1px;stroke-linecap:butt;stroke-linejoin:miter;stroke-opacity:1"
           x="127.198"
           y="65.278061"
           id="text5151-7"
           sodipodi:linespacing="125%"><tspan
             sodipodi:role="line"
             id="tspan5153-4"
             x="127.198"
             y="65.278061">42</tspan></text>
      </g>
    </g>
    <g
       inkscape:groupmode="layer"
       id="layer52"
       inkscape:label="create" />
  </g>
  <g
     inkscape:groupmode="layer"
     id="layer46"
     inkscape:label="topic 1">
    <rect
       style="display:inline;opacity:0.98999999;fill:#fafafa;fill-opacity:0.99215686;fill-rule:nonzero;stroke:none;stroke-width:0.5;stroke-linecap:round;stroke-linejoin:miter;stroke-miterlimit:4;stroke-dasharray:none;stroke-opacity:1"
       id="rect5116-3"
       width="406.18503"
       height="24.260199"
       x="-488.18503"
       y="76.674316"
       ry="6.3633308"
       transform="scale(-1,1)" />
    <text
       xml:space="preserve"
       style="font-style:normal;font-variant:normal;font-weight:normal;font-stretch:normal;font-size:10.39722824px;line-height:125%;font-family:sans-serif;-inkscape-font-specification:'sans-serif, Normal';text-align:start;letter-spacing:0px;word-spacing:0px;writing-mode:lr-tb;text-anchor:start;display:inline;fill:#1e1e1e;fill-opacity:1;stroke:none;stroke-width:1px;stroke-linecap:butt;stroke-linejoin:miter;stroke-opacity:1"
       x="168.66093"
       y="92.262871"
       id="text5119-0"
       sodipodi:linespacing="125%"><tspan
         sodipodi:role="line"
         id="tspan5121-7"
         x="168.66093"
         y="92.262871">Test Title</tspan></text>
    <text
       xml:space="preserve"
       style="font-style:normal;font-variant:normal;font-weight:normal;font-stretch:normal;font-size:5.19861412px;line-height:125%;font-family:sans-serif;-inkscape-font-specification:'sans-serif, Normal';text-align:start;letter-spacing:0px;word-spacing:0px;writing-mode:lr-tb;text-anchor:start;display:inline;fill:#000000;fill-opacity:1;stroke:none;stroke-width:1px;stroke-linecap:butt;stroke-linejoin:miter;stroke-opacity:1"
       x="234.78601"
       y="90.91954"
       id="text5124-4"
       sodipodi:linespacing="125%"><tspan
         sodipodi:role="line"
         x="234.78601"
         y="90.91954"
         id="tspan5128-6">/t/ComputerScience</tspan></text>
    <text
       xml:space="preserve"
       style="font-style:normal;font-variant:normal;font-weight:normal;font-stretch:normal;font-size:5.19861412px;line-height:125%;font-family:sans-serif;-inkscape-font-specification:'sans-serif, Normal';text-align:start;letter-spacing:0px;word-spacing:0px;writing-mode:lr-tb;text-anchor:start;display:inline;fill:#000000;fill-opacity:1;stroke:none;stroke-width:1px;stroke-linecap:butt;stroke-linejoin:miter;stroke-opacity:1"
       x="313.88892"
       y="90.487518"
       id="text5133-5"
       sodipodi:linespacing="125%"><tspan
         sodipodi:role="line"
         id="tspan5137-0"
         x="313.88892"
         y="90.487518">darithorn</tspan></text>
    <text
       xml:space="preserve"
       style="font-style:normal;font-variant:normal;font-weight:normal;font-stretch:normal;font-size:5.19861412px;line-height:125%;font-family:sans-serif;-inkscape-font-specification:'sans-serif, Normal';text-align:start;letter-spacing:0px;word-spacing:0px;writing-mode:lr-tb;text-anchor:start;display:inline;fill:#969696;fill-opacity:1;stroke:none;stroke-width:1px;stroke-linecap:butt;stroke-linejoin:miter;stroke-opacity:1"
       x="304.77722"
       y="90.146095"
       id="text5140-9"
       sodipodi:linespacing="125%"><tspan
         sodipodi:role="line"
         id="tspan5142-8"
         x="304.77722"
         y="90.146095"
         style="font-style:normal;font-variant:normal;font-weight:normal;font-stretch:normal;font-size:5.19861412px;line-height:125%;font-family:sans-serif;-inkscape-font-specification:'sans-serif, Normal';text-align:start;writing-mode:lr-tb;text-anchor:start;fill:#969696;fill-opacity:1">by</tspan></text>
    <text
       xml:space="preserve"
       style="font-style:normal;font-variant:normal;font-weight:normal;font-stretch:normal;font-size:8.66435623px;line-height:125%;font-family:sans-serif;-inkscape-font-specification:'sans-serif, Normal';text-align:start;letter-spacing:0px;word-spacing:0px;writing-mode:lr-tb;text-anchor:start;display:inline;fill:#000000;fill-opacity:1;stroke:none;stroke-width:1px;stroke-linecap:butt;stroke-linejoin:miter;stroke-opacity:1"
       x="92.569397"
       y="91.281319"
       id="text5151-4"
       sodipodi:linespacing="125%"><tspan
         sodipodi:role="line"
         id="tspan5153-44"
         x="92.569397"
         y="91.281319">42</tspan></text>
    <text
       xml:space="preserve"
       style="font-style:normal;font-variant:normal;font-weight:normal;font-stretch:normal;font-size:8.66435623px;line-height:125%;font-family:sans-serif;-inkscape-font-specification:'sans-serif, Normal';text-align:start;letter-spacing:0px;word-spacing:0px;writing-mode:lr-tb;text-anchor:start;display:inline;fill:#000000;fill-opacity:1;stroke:none;stroke-width:1px;stroke-linecap:butt;stroke-linejoin:miter;stroke-opacity:1"
       x="126.50485"
       y="91.345764"
       id="text5151-7-5"
       sodipodi:linespacing="125%"><tspan
         sodipodi:role="line"
         id="tspan5153-4-3"
         x="126.50485"
         y="91.345764">42</tspan></text>
  </g>
  <g
     inkscape:groupmode="layer"
     id="layer47"
     inkscape:label="topic 2">
    <rect
       style="display:inline;opacity:0.98999999;fill:#e1e1e1;fill-opacity:1;fill-rule:nonzero;stroke:none;stroke-width:0.5;stroke-linecap:round;stroke-linejoin:miter;stroke-miterlimit:4;stroke-dasharray:none;stroke-opacity:1"
       id="rect5116-3-0"
       width="406.18503"
       height="24.260199"
       x="-488.18503"
       y="98.954086"
       ry="6.3633308"
       transform="scale(-1,1)" />
    <text
       xml:space="preserve"
       style="font-style:normal;font-variant:normal;font-weight:normal;font-stretch:normal;font-size:10.39724946px;line-height:125%;font-family:sans-serif;-inkscape-font-specification:'sans-serif, Normal';text-align:start;letter-spacing:0px;word-spacing:0px;writing-mode:lr;text-anchor:start;display:inline;fill:#1e1e1e;fill-opacity:1;stroke:none;stroke-width:1px;stroke-linecap:butt;stroke-linejoin:miter;stroke-opacity:1;"
       x="168.66093"
       y="114.54264"
       id="text5119-0-6"
       sodipodi:linespacing="125%"><tspan
         sodipodi:role="line"
         id="tspan5121-7-2"
         x="168.66093"
         y="114.54264">Test Title</tspan></text>
    <text
       xml:space="preserve"
       style="font-style:normal;font-variant:normal;font-weight:normal;font-stretch:normal;font-size:5.19861412px;line-height:125%;font-family:sans-serif;-inkscape-font-specification:'sans-serif, Normal';text-align:start;letter-spacing:0px;word-spacing:0px;writing-mode:lr-tb;text-anchor:start;display:inline;fill:#000000;fill-opacity:1;stroke:none;stroke-width:1px;stroke-linecap:butt;stroke-linejoin:miter;stroke-opacity:1"
       x="234.78603"
       y="113.19932"
       id="text5124-4-1"
       sodipodi:linespacing="125%"><tspan
         sodipodi:role="line"
         x="234.78603"
         y="113.19932"
         id="tspan5128-6-0">/t/ComputerScience</tspan></text>
    <text
       xml:space="preserve"
       style="font-style:normal;font-variant:normal;font-weight:normal;font-stretch:normal;font-size:5.19861412px;line-height:125%;font-family:sans-serif;-inkscape-font-specification:'sans-serif, Normal';text-align:start;letter-spacing:0px;word-spacing:0px;writing-mode:lr-tb;text-anchor:start;display:inline;fill:#000000;fill-opacity:1;stroke:none;stroke-width:1px;stroke-linecap:butt;stroke-linejoin:miter;stroke-opacity:1"
       x="313.3938"
       y="112.27219"
       id="text5133-5-8"
       sodipodi:linespacing="125%"><tspan
         sodipodi:role="line"
         id="tspan5137-0-0"
         x="313.3938"
         y="112.27219">darithorn</tspan></text>
    <text
       xml:space="preserve"
       style="font-style:normal;font-variant:normal;font-weight:normal;font-stretch:normal;font-size:5.19861412px;line-height:125%;font-family:sans-serif;-inkscape-font-specification:'sans-serif, Normal';text-align:start;letter-spacing:0px;word-spacing:0px;writing-mode:lr-tb;text-anchor:start;display:inline;fill:#969696;fill-opacity:1;stroke:none;stroke-width:1px;stroke-linecap:butt;stroke-linejoin:miter;stroke-opacity:1"
       x="304.2821"
       y="111.93076"
       id="text5140-9-4"
       sodipodi:linespacing="125%"><tspan
         sodipodi:role="line"
         id="tspan5142-8-2"
         x="304.2821"
         y="111.93076"
         style="font-style:normal;font-variant:normal;font-weight:normal;font-stretch:normal;font-size:5.19861412px;line-height:125%;font-family:sans-serif;-inkscape-font-specification:'sans-serif, Normal';text-align:start;writing-mode:lr-tb;text-anchor:start;fill:#969696;fill-opacity:1">by</tspan></text>
    <text
       xml:space="preserve"
       style="font-style:normal;font-variant:normal;font-weight:normal;font-stretch:normal;font-size:8.66435623px;line-height:125%;font-family:sans-serif;-inkscape-font-specification:'sans-serif, Normal';text-align:start;letter-spacing:0px;word-spacing:0px;writing-mode:lr-tb;text-anchor:start;display:inline;fill:#000000;fill-opacity:1;stroke:none;stroke-width:1px;stroke-linecap:butt;stroke-linejoin:miter;stroke-opacity:1"
       x="92.569397"
       y="113.5611"
       id="text5151-4-6"
       sodipodi:linespacing="125%"><tspan
         sodipodi:role="line"
         id="tspan5153-44-3"
         x="92.569397"
         y="113.5611">42</tspan></text>
    <text
       xml:space="preserve"
       style="font-style:normal;font-variant:normal;font-weight:normal;font-stretch:normal;font-size:8.66435623px;line-height:125%;font-family:sans-serif;-inkscape-font-specification:'sans-serif, Normal';text-align:start;letter-spacing:0px;word-spacing:0px;writing-mode:lr-tb;text-anchor:start;display:inline;fill:#000000;fill-opacity:1;stroke:none;stroke-width:1px;stroke-linecap:butt;stroke-linejoin:miter;stroke-opacity:1"
       x="126.50485"
       y="113.62553"
       id="text5151-7-5-3"
       sodipodi:linespacing="125%"><tspan
         sodipodi:role="line"
         id="tspan5153-4-3-3"
         x="126.50485"
         y="113.62553">42</tspan></text>
    <path
       id="path7265"
       d="m 138.59626,14.549581 c 0.271,-0.268 0.709,-0.268 0.978,0 0.27,0.268 0.272,0.701 0,0.969 l -3.908,3.83 c -0.27,0.268 -0.707,0.268 -0.979,0 l -3.908,-3.83 c -0.27,-0.267 -0.27,-0.701 0,-0.969 0.271,-0.268 0.709,-0.268 0.978,0 l 3.421,3.141 3.418,-3.141 z"
       inkscape:connector-curvature="0"
       style="fill:#ffffff;fill-opacity:1" />
  </g>
  <g
     inkscape:groupmode="layer"
     id="layer23"
     inkscape:label="subject"
     sodipodi:insensitive="true"
     style="display:none">
    <g
       inkscape:groupmode="layer"
       id="layer24"
       inkscape:label="subject_background">
      <rect
         style="opacity:0.98999999;fill:#e1e1e1;fill-opacity:1;fill-rule:nonzero;stroke:none;stroke-width:0.5;stroke-linecap:round;stroke-linejoin:miter;stroke-miterlimit:4;stroke-dasharray:none;stroke-opacity:1"
         id="rect5405"
         width="574.27173"
         height="26.263968"
         x="11.111678"
         y="139.86533"
         ry="3.9480653" />
    </g>
    <g
       inkscape:groupmode="layer"
       id="layer25"
       inkscape:label="subject_title">
      <text
         xml:space="preserve"
         style="font-style:normal;font-variant:normal;font-weight:normal;font-stretch:normal;font-size:15px;line-height:125%;font-family:sans-serif;-inkscape-font-specification:'sans-serif, Normal';text-align:start;letter-spacing:0px;word-spacing:0px;writing-mode:lr-tb;text-anchor:start;fill:#000000;fill-opacity:1;stroke:none;stroke-width:1px;stroke-linecap:butt;stroke-linejoin:miter;stroke-opacity:1"
         x="55.053314"
         y="120.67242"
         id="text5408"
         sodipodi:linespacing="125%"><tspan
           sodipodi:role="line"
           id="tspan5410"
           x="55.053314"
           y="120.67242">Test Title</tspan></text>
    </g>
    <g
       inkscape:groupmode="layer"
       id="layer26"
       inkscape:label="subject_author">
      <g
         inkscape:groupmode="layer"
         id="layer27"
         inkscape:label="subject_by">
        <text
           xml:space="preserve"
           style="font-style:normal;font-weight:normal;font-size:7.5px;line-height:125%;font-family:sans-serif;letter-spacing:0px;word-spacing:0px;fill:#acacac;fill-opacity:1;stroke:none;stroke-width:1px;stroke-linecap:butt;stroke-linejoin:miter;stroke-opacity:1"
           x="143.46706"
           y="134.10551"
           id="text5419"
           sodipodi:linespacing="125%"><tspan
             sodipodi:role="line"
             id="tspan5421"
             x="143.46706"
             y="134.10551">by</tspan></text>
      </g>
      <text
         xml:space="preserve"
         style="font-style:normal;font-weight:normal;font-size:7.5px;line-height:125%;font-family:sans-serif;letter-spacing:0px;word-spacing:0px;fill:#000000;fill-opacity:1;stroke:none;stroke-width:1px;stroke-linecap:butt;stroke-linejoin:miter;stroke-opacity:1"
         x="156.57365"
         y="134.81454"
         id="text5413"
         sodipodi:linespacing="125%"><tspan
           sodipodi:role="line"
           id="tspan5415"
           x="156.57365"
           y="134.81454">darithorn</tspan></text>
    </g>
    <g
       inkscape:groupmode="layer"
       id="layer28"
       inkscape:label="subject_score">
      <text
         xml:space="preserve"
         style="font-style:normal;font-variant:normal;font-weight:normal;font-stretch:normal;font-size:12.5px;line-height:125%;font-family:sans-serif;-inkscape-font-specification:'sans-serif, Normal';text-align:start;letter-spacing:0px;word-spacing:0px;writing-mode:lr-tb;text-anchor:start;fill:#000000;fill-opacity:1;stroke:none;stroke-width:1px;stroke-linecap:butt;stroke-linejoin:miter;stroke-opacity:1"
         x="23.233509"
         y="123.70287"
         id="text5424"
         sodipodi:linespacing="125%"><tspan
           sodipodi:role="line"
           id="tspan5426"
           x="23.233509"
           y="123.70287">42</tspan></text>
    </g>
    <g
       inkscape:groupmode="layer"
       id="layer29"
       inkscape:label="subject_topic">
      <text
         xml:space="preserve"
         style="font-style:normal;font-weight:normal;font-size:7.5px;line-height:125%;font-family:sans-serif;letter-spacing:0px;word-spacing:0px;fill:#000000;fill-opacity:1;stroke:none;stroke-width:1px;stroke-linecap:butt;stroke-linejoin:miter;stroke-opacity:1"
         x="57.073616"
         y="134.30948"
         id="text5548"
         sodipodi:linespacing="125%"><tspan
           sodipodi:role="line"
           id="tspan5550"
           x="57.073616"
           y="134.30948">/t/ComputerScience</tspan><tspan
           sodipodi:role="line"
           x="57.073616"
           y="143.68448"
           id="tspan5552" /></text>
    </g>
    <g
       inkscape:groupmode="layer"
       id="layer30"
       inkscape:label="subject_content">
      <text
         xml:space="preserve"
         style="font-style:normal;font-variant:normal;font-weight:normal;font-stretch:normal;font-size:10px;line-height:125%;font-family:sans-serif;-inkscape-font-specification:'sans-serif, Normal';text-align:start;letter-spacing:0px;word-spacing:0px;writing-mode:lr-tb;text-anchor:start;fill:#000000;fill-opacity:1;stroke:none;stroke-width:1px;stroke-linecap:butt;stroke-linejoin:miter;stroke-opacity:1"
         x="22.223356"
         y="157.0379"
         id="text5555"
         sodipodi:linespacing="125%"><tspan
           sodipodi:role="line"
           id="tspan5557"
           x="22.223356"
           y="157.0379">This is a test subject. A suggestion is that all subjects contain at least one question to spark discussion.</tspan></text>
    </g>
    <g
       inkscape:groupmode="layer"
       id="layer31"
       inkscape:label="subject_reply">
      <text
         xml:space="preserve"
         style="font-style:normal;font-variant:normal;font-weight:normal;font-stretch:normal;font-size:7.5px;line-height:125%;font-family:sans-serif;-inkscape-font-specification:'sans-serif, Normal';text-align:start;letter-spacing:0px;word-spacing:0px;writing-mode:lr-tb;text-anchor:start;fill:#000000;fill-opacity:1;stroke:none;stroke-width:1px;stroke-linecap:butt;stroke-linejoin:miter;stroke-opacity:1"
         x="28.789349"
         y="178.25111"
         id="text5560"
         sodipodi:linespacing="125%"><tspan
           sodipodi:role="line"
           id="tspan5571"
           x="28.789349"
           y="178.25111">Comment</tspan></text>
    </g>
    <g
       inkscape:groupmode="layer"
       id="layer32"
       inkscape:label="subject_listen">
      <text
         xml:space="preserve"
         style="font-style:normal;font-variant:normal;font-weight:normal;font-stretch:normal;font-size:7.5px;line-height:125%;font-family:sans-serif;-inkscape-font-specification:'sans-serif, Normal';text-align:start;letter-spacing:0px;word-spacing:0px;writing-mode:lr-tb;text-anchor:start;fill:#000000;fill-opacity:1;stroke:none;stroke-width:1px;stroke-linecap:butt;stroke-linejoin:miter;stroke-opacity:1"
         x="75.761436"
         y="178.25111"
         id="text5565"
         sodipodi:linespacing="125%"><tspan
           sodipodi:role="line"
           id="tspan5569"
           x="75.761436"
           y="178.25111">Eavesdrop</tspan></text>
    </g>
    <g
       inkscape:groupmode="layer"
       id="layer38"
       inkscape:label="on 1">
      <text
         xml:space="preserve"
         style="font-style:normal;font-variant:normal;font-weight:normal;font-stretch:normal;font-size:7.5px;line-height:125%;font-family:sans-serif;-inkscape-font-specification:'sans-serif, Normal';text-align:start;letter-spacing:0px;word-spacing:0px;writing-mode:lr-tb;text-anchor:start;fill:#acacac;fill-opacity:1;stroke:none;stroke-width:1px;stroke-linecap:butt;stroke-linejoin:miter;stroke-opacity:1"
         x="195.9243"
         y="134.40706"
         id="text5419-1-5"
         sodipodi:linespacing="125%"><tspan
           sodipodi:role="line"
           id="tspan5633-9"
           x="195.9243"
           y="134.40706">on</tspan></text>
    </g>
    <g
       inkscape:groupmode="layer"
       id="layer39"
       inkscape:label="time 1">
      <text
         xml:space="preserve"
         style="font-style:normal;font-weight:normal;font-size:7.5px;line-height:125%;font-family:sans-serif;letter-spacing:0px;word-spacing:0px;fill:#000000;fill-opacity:1;stroke:none;stroke-width:1px;stroke-linecap:butt;stroke-linejoin:miter;stroke-opacity:1"
         x="210.85432"
         y="134.35826"
         id="text5636-3"
         sodipodi:linespacing="125%"><tspan
           sodipodi:role="line"
           id="tspan5638-5"
           x="210.85432"
           y="134.35826">July 15, 2015 12:50pm (2 minutes ago)</tspan></text>
    </g>
  </g>
  <g
     inkscape:groupmode="layer"
     id="layer33"
     inkscape:label="comments"
     sodipodi:insensitive="true"
     style="display:none">
    <g
       inkscape:groupmode="layer"
       id="layer34"
       inkscape:label="comment_background">
      <rect
         style="opacity:0.98999999;fill:#e1e1e1;fill-opacity:1;fill-rule:nonzero;stroke:none;stroke-width:0.5;stroke-linecap:round;stroke-linejoin:miter;stroke-miterlimit:4;stroke-dasharray:none;stroke-opacity:1"
         id="rect5405-6"
         width="282.46518"
         height="31.31473"
         x="11.364211"
         y="194.91862"
         ry="4.7073083" />
    </g>
    <g
       inkscape:groupmode="layer"
       id="layer35"
       inkscape:label="author 1">
      <text
         xml:space="preserve"
         style="font-style:normal;font-weight:normal;font-size:4.69696999px;line-height:125%;font-family:sans-serif;letter-spacing:0px;word-spacing:0px;fill:#000000;fill-opacity:1;stroke:none;stroke-width:1px;stroke-linecap:butt;stroke-linejoin:miter;stroke-opacity:1"
         x="15.012712"
         y="201.73065"
         id="text5413-0"
         sodipodi:linespacing="125%"><tspan
           sodipodi:role="line"
           id="tspan5415-3"
           x="15.012712"
           y="201.73065">darithorn</tspan></text>
    </g>
    <g
       inkscape:groupmode="layer"
       id="layer36"
       inkscape:label="on">
      <text
         xml:space="preserve"
         style="font-style:normal;font-variant:normal;font-weight:normal;font-stretch:normal;font-size:4.69696999px;line-height:125%;font-family:sans-serif;-inkscape-font-specification:'sans-serif, Normal';text-align:start;letter-spacing:0px;word-spacing:0px;writing-mode:lr-tb;text-anchor:start;fill:#acacac;fill-opacity:1;stroke:none;stroke-width:1px;stroke-linecap:butt;stroke-linejoin:miter;stroke-opacity:1"
         x="40.129505"
         y="201.59171"
         id="text5419-1"
         sodipodi:linespacing="125%"><tspan
           sodipodi:role="line"
           id="tspan5633"
           x="40.129505"
           y="201.59171">on</tspan></text>
    </g>
    <g
       inkscape:groupmode="layer"
       id="layer37"
       inkscape:label="time">
      <text
         xml:space="preserve"
         style="font-style:normal;font-weight:normal;font-size:4.69696999px;line-height:125%;font-family:sans-serif;letter-spacing:0px;word-spacing:0px;fill:#000000;fill-opacity:1;stroke:none;stroke-width:1px;stroke-linecap:butt;stroke-linejoin:miter;stroke-opacity:1"
         x="51.061169"
         y="201.56114"
         id="text5636"
         sodipodi:linespacing="125%"><tspan
           sodipodi:role="line"
           id="tspan5638"
           x="51.061169"
           y="201.56114">July 15, 2015 12:50pm (2 minutes ago)</tspan></text>
    </g>
    <g
       inkscape:groupmode="layer"
       id="layer40"
       inkscape:label="content">
      <text
         xml:space="preserve"
         style="font-style:normal;font-variant:normal;font-weight:normal;font-stretch:normal;font-size:6.26262617px;line-height:125%;font-family:sans-serif;-inkscape-font-specification:'sans-serif, Normal';text-align:start;letter-spacing:0px;word-spacing:0px;writing-mode:lr-tb;text-anchor:start;fill:#000000;fill-opacity:1;stroke:none;stroke-width:1px;stroke-linecap:butt;stroke-linejoin:miter;stroke-opacity:1"
         x="16.583336"
         y="213.26462"
         id="text5671"
         sodipodi:linespacing="125%"><tspan
           sodipodi:role="line"
           id="tspan5673"
           x="16.583336"
           y="213.26462">This is a test comment. Remember to always contribute positively to the discussion.</tspan></text>
    </g>
    <g
       inkscape:groupmode="layer"
       id="layer42"
       inkscape:label="reply">
      <text
         xml:space="preserve"
         style="font-style:normal;font-weight:normal;font-size:4.69696999px;line-height:125%;font-family:sans-serif;letter-spacing:0px;word-spacing:0px;fill:#000000;fill-opacity:1;stroke:none;stroke-width:1px;stroke-linecap:butt;stroke-linejoin:miter;stroke-opacity:1"
         x="159.87193"
         y="200.61221"
         id="text5720"
         sodipodi:linespacing="125%"><tspan
           sodipodi:role="line"
           id="tspan5722"
           x="159.87193"
           y="200.61221">Reply</tspan></text>
    </g>
    <g
       inkscape:groupmode="layer"
       id="layer43"
       inkscape:label="eavesdrop">
      <text
         xml:space="preserve"
         style="font-style:normal;font-weight:normal;font-size:4.69696999px;line-height:125%;font-family:sans-serif;letter-spacing:0px;word-spacing:0px;fill:#000000;fill-opacity:1;stroke:none;stroke-width:1px;stroke-linecap:butt;stroke-linejoin:miter;stroke-opacity:1"
         x="181.69736"
         y="200.61221"
         id="text5725"
         sodipodi:linespacing="125%"><tspan
           sodipodi:role="line"
           id="tspan5727"
           x="181.69736"
           y="200.61221">Eavesdrop</tspan><tspan
           sodipodi:role="line"
           x="181.69736"
           y="206.48343"
           id="tspan5729" /></text>
    </g>
  </g>
  <g
     inkscape:groupmode="layer"
     id="layer44"
     inkscape:label="subcomment"
     sodipodi:insensitive="true"
     style="display:none">
    <rect
       style="opacity:0.98999999;fill:#fafafa;fill-opacity:0.99215686;fill-rule:nonzero;stroke:none;stroke-width:0.5;stroke-linecap:round;stroke-linejoin:miter;stroke-miterlimit:4;stroke-dasharray:none;stroke-opacity:1"
       id="rect5405-6-4"
       width="282.46518"
       height="31.31473"
       x="20.896896"
       y="219.16228"
       ry="4.7073083" />
    <text
       xml:space="preserve"
       style="font-style:normal;font-weight:normal;font-size:4.69696999px;line-height:125%;font-family:sans-serif;letter-spacing:0px;word-spacing:0px;fill:#000000;fill-opacity:1;stroke:none;stroke-width:1px;stroke-linecap:butt;stroke-linejoin:miter;stroke-opacity:1"
       x="24.545395"
       y="225.9743"
       id="text5413-0-9"
       sodipodi:linespacing="125%"><tspan
         sodipodi:role="line"
         id="tspan5415-3-9"
         x="24.545395"
         y="225.9743">darithorn</tspan></text>
    <text
       xml:space="preserve"
       style="font-style:normal;font-variant:normal;font-weight:normal;font-stretch:normal;font-size:4.69696999px;line-height:125%;font-family:sans-serif;-inkscape-font-specification:'sans-serif, Normal';text-align:start;letter-spacing:0px;word-spacing:0px;writing-mode:lr-tb;text-anchor:start;fill:#acacac;fill-opacity:1;stroke:none;stroke-width:1px;stroke-linecap:butt;stroke-linejoin:miter;stroke-opacity:1"
       x="49.662186"
       y="225.83536"
       id="text5419-1-9"
       sodipodi:linespacing="125%"><tspan
         sodipodi:role="line"
         id="tspan5633-2"
         x="49.662186"
         y="225.83536">on</tspan></text>
    <text
       xml:space="preserve"
       style="font-style:normal;font-weight:normal;font-size:4.69696999px;line-height:125%;font-family:sans-serif;letter-spacing:0px;word-spacing:0px;fill:#000000;fill-opacity:1;stroke:none;stroke-width:1px;stroke-linecap:butt;stroke-linejoin:miter;stroke-opacity:1"
       x="60.593853"
       y="225.80479"
       id="text5636-1"
       sodipodi:linespacing="125%"><tspan
         sodipodi:role="line"
         id="tspan5638-2"
         x="60.593853"
         y="225.80479">July 15, 2015 12:50pm (2 minutes ago)</tspan></text>
    <text
       xml:space="preserve"
       style="font-style:normal;font-variant:normal;font-weight:normal;font-stretch:normal;font-size:6.26262617px;line-height:125%;font-family:sans-serif;-inkscape-font-specification:'sans-serif, Normal';text-align:start;letter-spacing:0px;word-spacing:0px;writing-mode:lr-tb;text-anchor:start;fill:#000000;fill-opacity:1;stroke:none;stroke-width:1px;stroke-linecap:butt;stroke-linejoin:miter;stroke-opacity:1"
       x="26.11602"
       y="237.50827"
       id="text5671-1"
       sodipodi:linespacing="125%"><tspan
         sodipodi:role="line"
         id="tspan5673-1"
         x="26.11602"
         y="237.50827">This is a test comment. Remember to always contribute positively to the discussion.</tspan></text>
    <text
       xml:space="preserve"
       style="font-style:normal;font-weight:normal;font-size:4.69696999px;line-height:125%;font-family:sans-serif;letter-spacing:0px;word-spacing:0px;fill:#000000;fill-opacity:1;stroke:none;stroke-width:1px;stroke-linecap:butt;stroke-linejoin:miter;stroke-opacity:1"
       x="169.40462"
       y="224.85587"
       id="text5720-3"
       sodipodi:linespacing="125%"><tspan
         sodipodi:role="line"
         id="tspan5722-4"
         x="169.40462"
         y="224.85587">Reply</tspan></text>
    <text
       xml:space="preserve"
       style="font-style:normal;font-weight:normal;font-size:4.69696999px;line-height:125%;font-family:sans-serif;letter-spacing:0px;word-spacing:0px;fill:#000000;fill-opacity:1;stroke:none;stroke-width:1px;stroke-linecap:butt;stroke-linejoin:miter;stroke-opacity:1"
       x="191.23003"
       y="224.85587"
       id="text5725-3"
       sodipodi:linespacing="125%"><tspan
         sodipodi:role="line"
         id="tspan5727-6"
         x="191.23003"
         y="224.85587">Eavesdrop</tspan><tspan
         sodipodi:role="line"
         x="191.23003"
         y="230.72708"
         id="tspan5729-1" /></text>
  </g>
  <g
     inkscape:groupmode="layer"
     id="layer45"
     inkscape:label="subcomment 1"
     style="display:none"
     sodipodi:insensitive="true">
    <rect
       style="opacity:0.98999999;fill:#e1e1e1;fill-opacity:1;fill-rule:nonzero;stroke:none;stroke-width:0.5;stroke-linecap:round;stroke-linejoin:miter;stroke-miterlimit:4;stroke-dasharray:none;stroke-opacity:1"
       id="rect5405-6-4-4"
       width="282.46518"
       height="31.31473"
       x="33.018734"
       y="241.89072"
       ry="4.7073083" />
    <text
       xml:space="preserve"
       style="font-style:normal;font-weight:normal;font-size:4.69696999px;line-height:125%;font-family:sans-serif;letter-spacing:0px;word-spacing:0px;fill:#000000;fill-opacity:1;stroke:none;stroke-width:1px;stroke-linecap:butt;stroke-linejoin:miter;stroke-opacity:1"
       x="36.667217"
       y="248.70273"
       id="text5413-0-9-1"
       sodipodi:linespacing="125%"><tspan
         sodipodi:role="line"
         id="tspan5415-3-9-7"
         x="36.667217"
         y="248.70273">darithorn</tspan></text>
    <text
       xml:space="preserve"
       style="font-style:normal;font-variant:normal;font-weight:normal;font-stretch:normal;font-size:4.69696999px;line-height:125%;font-family:sans-serif;-inkscape-font-specification:'sans-serif, Normal';text-align:start;letter-spacing:0px;word-spacing:0px;writing-mode:lr-tb;text-anchor:start;fill:#acacac;fill-opacity:1;stroke:none;stroke-width:1px;stroke-linecap:butt;stroke-linejoin:miter;stroke-opacity:1"
       x="61.784016"
       y="248.56378"
       id="text5419-1-9-2"
       sodipodi:linespacing="125%"><tspan
         sodipodi:role="line"
         id="tspan5633-2-7"
         x="61.784016"
         y="248.56378">on</tspan></text>
    <text
       xml:space="preserve"
       style="font-style:normal;font-weight:normal;font-size:4.69696999px;line-height:125%;font-family:sans-serif;letter-spacing:0px;word-spacing:0px;fill:#000000;fill-opacity:1;stroke:none;stroke-width:1px;stroke-linecap:butt;stroke-linejoin:miter;stroke-opacity:1"
       x="72.715683"
       y="248.53323"
       id="text5636-1-0"
       sodipodi:linespacing="125%"><tspan
         sodipodi:role="line"
         id="tspan5638-2-8"
         x="72.715683"
         y="248.53323">July 15, 2015 12:50pm (2 minutes ago)</tspan></text>
    <text
       xml:space="preserve"
       style="font-style:normal;font-variant:normal;font-weight:normal;font-stretch:normal;font-size:6.26262617px;line-height:125%;font-family:sans-serif;-inkscape-font-specification:'sans-serif, Normal';text-align:start;letter-spacing:0px;word-spacing:0px;writing-mode:lr-tb;text-anchor:start;fill:#000000;fill-opacity:1;stroke:none;stroke-width:1px;stroke-linecap:butt;stroke-linejoin:miter;stroke-opacity:1"
       x="38.23785"
       y="260.23669"
       id="text5671-1-6"
       sodipodi:linespacing="125%"><tspan
         sodipodi:role="line"
         id="tspan5673-1-0"
         x="38.23785"
         y="260.23669">This is a test comment. Remember to always contribute positively to the discussion.</tspan></text>
    <text
       xml:space="preserve"
       style="font-style:normal;font-weight:normal;font-size:4.69696999px;line-height:125%;font-family:sans-serif;letter-spacing:0px;word-spacing:0px;fill:#000000;fill-opacity:1;stroke:none;stroke-width:1px;stroke-linecap:butt;stroke-linejoin:miter;stroke-opacity:1"
       x="181.52644"
       y="247.58429"
       id="text5720-3-0"
       sodipodi:linespacing="125%"><tspan
         sodipodi:role="line"
         id="tspan5722-4-8"
         x="181.52644"
         y="247.58429">Reply</tspan></text>
    <text
       xml:space="preserve"
       style="font-style:normal;font-weight:normal;font-size:4.69696999px;line-height:125%;font-family:sans-serif;letter-spacing:0px;word-spacing:0px;fill:#000000;fill-opacity:1;stroke:none;stroke-width:1px;stroke-linecap:butt;stroke-linejoin:miter;stroke-opacity:1"
       x="203.35185"
       y="247.58429"
       id="text5725-3-7"
       sodipodi:linespacing="125%"><tspan
         sodipodi:role="line"
         id="tspan5727-6-5"
         x="203.35185"
         y="247.58429">Eavesdrop</tspan><tspan
         sodipodi:role="line"
         x="203.35185"
         y="253.45551"
         id="tspan5729-1-6" /></text>
  </g>
</svg>
